{
    "_links": {
        "self": {
            "href": "http:\/\/default\/blog\/blog-post-sample-comments?_format=hal_json"
        },
        "type": {
            "href": "http:\/\/drupal.org\/rest\/type\/node\/blog_post"
        },
        "http:\/\/drupal.org\/rest\/relation\/node\/blog_post\/revision_uid": [
            {
                "href": "http:\/\/default\/user\/1?_format=hal_json"
            }
        ],
        "http:\/\/drupal.org\/rest\/relation\/node\/blog_post\/uid": [
            {
                "href": "http:\/\/default\/user\/1?_format=hal_json",
                "lang": "en"
            }
        ],
        "http:\/\/drupal.org\/rest\/relation\/node\/blog_post\/field_blog_post_category": [
            {
                "href": "http:\/\/default\/taxonomy\/term\/29?_format=hal_json"
            },
            {
                "href": "http:\/\/default\/taxonomy\/term\/30?_format=hal_json"
            }
        ]
    },
    "nid": [
        {
        }
    ],
    "uuid": [
        {
            "value": "f96a1331-4d08-4582-914f-c802a2ff6440"
        }
    ],
    "vid": [
        {
        }
    ],
    "langcode": [
        {
            "value": "en",
            "lang": "en"
        }
    ],
    "type": [
        {
            "target_id": "blog_post"
        }
    ],
    "revision_timestamp": [
        {
            "value": "2018-05-23T02:22:07+00:00",
            "format": "Y-m-d\\TH:i:sP"
        }
    ],
    "_embedded": {
        "http:\/\/drupal.org\/rest\/relation\/node\/blog_post\/revision_uid": [
            {
                "_links": {
                    "self": {
                        "href": "http:\/\/default\/user\/1?_format=hal_json"
                    },
                    "type": {
                        "href": "http:\/\/drupal.org\/rest\/type\/user\/user"
                    }
                },
                "uuid": [
                    {
                        "value": "b9370d9a-ce80-4bda-bf2f-32376c1cfbc9"
                    }
                ]
            }
        ],
        "http:\/\/drupal.org\/rest\/relation\/node\/blog_post\/uid": [
            {
                "_links": {
                    "self": {
                        "href": "http:\/\/default\/user\/1?_format=hal_json"
                    },
                    "type": {
                        "href": "http:\/\/drupal.org\/rest\/type\/user\/user"
                    }
                },
                "uuid": [
                    {
                        "value": "b9370d9a-ce80-4bda-bf2f-32376c1cfbc9"
                    }
                ],
                "lang": "en"
            }
        ],
        "http:\/\/drupal.org\/rest\/relation\/node\/blog_post\/field_blog_post_category": [
            {
                "_links": {
                    "self": {
                        "href": "http:\/\/default\/taxonomy\/term\/29?_format=hal_json"
                    },
                    "type": {
                        "href": "http:\/\/drupal.org\/rest\/type\/taxonomy_term\/blog_post_category"
                    }
                },
                "uuid": [
                    {
                        "value": "04927320-40c6-4eaf-8547-bea0f6e48dc1"
                    }
                ]
            },
            {
                "_links": {
                    "self": {
                        "href": "http:\/\/default\/taxonomy\/term\/30?_format=hal_json"
                    },
                    "type": {
                        "href": "http:\/\/drupal.org\/rest\/type\/taxonomy_term\/blog_post_category"
                    }
                },
                "uuid": [
                    {
                        "value": "f56e5a35-d9cb-4a8b-954b-deacf5e14eb4"
                    }
                ]
            }
        ]
    },
    "status": [
        {
            "value": true,
            "lang": "en"
        }
    ],
    "title": [
        {
            "value": "Blog post sample with comments",
            "lang": "en"
        }
    ],
    "created": [
        {
            "value": "2018-05-14T22:49:15+00:00",
            "lang": "en",
            "format": "Y-m-d\\TH:i:sP"
        }
    ],
    "changed": [
        {
            "value": "2018-05-23T02:22:07+00:00",
            "lang": "en",
            "format": "Y-m-d\\TH:i:sP"
        }
    ],
    "promote": [
        {
            "value": false,
            "lang": "en"
        }
    ],
    "sticky": [
        {
            "value": false,
            "lang": "en"
        }
    ],
    "default_langcode": [
        {
            "value": true,
            "lang": "en"
        }
    ],
    "revision_translation_affected": [
        {
            "value": true,
            "lang": "en"
        }
    ],
    "metatag": [
        {
            "value": {
                "title": "Blog post sample with comments | Base1",
                "description": "Out of the box, the Sector Blog configuration allows public -\u00a0unauthenticated -\u00a0users\u00a0to submit comments. Submitted comments are queued in moderation and the Blog editor user role can approve comments."
            }
        }
    ],
    "path": [
        {
            "alias": "\/blog\/blog-post-sample-comments",
            "pid": 22,
            "langcode": "en",
            "lang": "en"
        }
    ],
    "rh_action": [
        {
            "value": "bundle_default"
        }
    ],
    "rh_redirect_response": [
        {
            "value": 301
        }
    ],
    "body": [
        {
            "value": "<p class=\"lead\">Out of the box, the Sector Blog configuration allows public -&nbsp;unauthenticated -&nbsp;users&nbsp;to submit comments. Submitted comments are queued in moderation and the Blog editor user role can approve comments. Only approved comments are shown to the public.&nbsp;&nbsp;<\/p>\r\n\r\n<div aria-label=\"Information\" class=\"note\" role=\"note\">\r\n<p>This&nbsp;is a sample content node&nbsp;of the content type&nbsp;<em>Blog post<\/em>. <a href=\"#comment-1\">Comments<\/a> are open and two sample comments shown below are approved.&nbsp;<\/p>\r\n<\/div>\r\n\r\n<p>Sector Blog comments include&nbsp;<a href=\"https:\/\/en.wikipedia.org\/wiki\/CAPTCHA\">CAPTCHA<\/a>&nbsp;and&nbsp;<a href=\"https:\/\/www.google.com\/recaptcha\/intro\/v3beta.html\">reCAPTCHA<\/a>&nbsp;options&nbsp;for the comment submission&nbsp;form.&nbsp;Out of the box, the CAPTCHA point is preconfigured to set a math challenge. For LIVE sites (production) with public comment, we highly recommend to get a site specific reCAPTCHA key and enable the included reCAPTCHA option.<\/p>\r\n\r\n<p>As with all Sector components, the Display Suite displays and flexible configuration options allow the sitebuilder to customise the comment settings to match your specific needs.&nbsp;The <a href=\"http:\/\/sector.org.nz\/documentation\/sector-blog\">Sector Blog documentation on Sector.org.nz<\/a>&nbsp;introduces&nbsp;the main features and functionality, and provides links and help for sitebuilders to customise your blog and make it your own!<\/p>\r\n",
            "format": "basic_html",
            "processed": "<p class=\"lead\">Out of the box, the Sector Blog configuration allows public -\u00a0unauthenticated -\u00a0users\u00a0to submit comments. Submitted comments are queued in moderation and the Blog editor user role can approve comments. Only approved comments are shown to the public.\u00a0\u00a0<\/p>\n\n<div aria-label=\"Information\" class=\"note\" role=\"note\">\n<p>This\u00a0is a sample content node\u00a0of the content type\u00a0<em>Blog post<\/em>. <a href=\"#comment-1\">Comments<\/a> are open and two sample comments shown below are approved.\u00a0<\/p>\n<\/div>\n\n<p>Sector Blog comments include\u00a0<a href=\"https:\/\/en.wikipedia.org\/wiki\/CAPTCHA\">CAPTCHA<\/a>\u00a0and\u00a0<a href=\"https:\/\/www.google.com\/recaptcha\/intro\/v3beta.html\">reCAPTCHA<\/a>\u00a0options\u00a0for the comment submission\u00a0form.\u00a0Out of the box, the CAPTCHA point is preconfigured to set a math challenge. For LIVE sites (production) with public comment, we highly recommend to get a site specific reCAPTCHA key and enable the included reCAPTCHA option.<\/p>\n\n<p>As with all Sector components, the Display Suite displays and flexible configuration options allow the sitebuilder to customise the comment settings to match your specific needs.\u00a0The <a href=\"http:\/\/sector.org.nz\/documentation\/sector-blog\">Sector Blog documentation on Sector.org.nz<\/a>\u00a0introduces\u00a0the main features and functionality, and provides links and help for sitebuilders to customise your blog and make it your own!<\/p>",
            "summary": ""
        }
    ],
    "field_comments": [
        {
            "status": 2,
            "cid": 4,
            "last_comment_timestamp": 1527038262,
            "last_comment_name": null,
            "last_comment_uid": 0,
            "comment_count": 2
        }
    ],
    "field_issue_date": [
        {
            "value": "2017-05-14"
        }
    ]
}
